{
  "project_info": {
    "project_number": "619637672524",
    "firebase_url": "https://info-manggung.firebaseio.com",
    "project_id": "info-manggung",
    "storage_bucket": "info-manggung.appspot.com"
  },
  "client": [
    {
      "client_info": {
        "mobilesdk_app_id": "1:619637672524:android:8b289ae29c1fddb6",
        "android_client_info": {
          "package_name": "com.sidechainlabs.infomanggung"
        }
      },
      "oauth_client": [
        {
          "client_id": "619637672524-1633bi6npdi7s56a0pc6p8qeocfvv9ov.apps.googleusercontent.com",
          "client_type": 1,
          "android_info": {
            "package_name": "com.sidechainlabs.infomanggung",
            "certificate_hash": "db4a55b6c358abf92480bbc72884717b31561976"
          }
        },
        {
          "client_id": "619637672524-44m8kb69gs2e3tpn6s0v55u0m50dfcqh.apps.googleusercontent.com",
          "client_type": 1,
          "android_info": {
            "package_name": "com.sidechainlabs.infomanggung",
            "certificate_hash": "2577dee6f81862eeac29e77ce53cf483538d35ea"
          }
        },
        {
          "client_id": "619637672524-dh3lomdgbjoi9bfdisr3cqeieqgn6s5p.apps.googleusercontent.com",
          "client_type": 1,
          "android_info": {
            "package_name": "com.sidechainlabs.infomanggung",
            "certificate_hash": "e0a7be8a3ac8bf62a9da46d15f731e059ce0f926"
          }
        },
        {
          "client_id": "619637672524-99o6aiuit3deu0edevi2f7sbg3uqeecd.apps.googleusercontent.com",
          "client_type": 3
        }
      ],
      "api_key": [
        {
          "current_key": "AIzaSyCcSpOEEQw_jNgj2Qw0P606nkdUQuSiE1Q"
        }
      ],
      "services": {
        "analytics_service": {
          "status": 1
        },
        "appinvite_service": {
          "status": 2,
          "other_platform_oauth_client": [
            {
              "client_id": "619637672524-99o6aiuit3deu0edevi2f7sbg3uqeecd.apps.googleusercontent.com",
              "client_type": 3
            }
          ]
        },
        "ads_service": {
          "status": 2
        }
      }
    }
  ],
  "configuration_version": "1"
}